{
    "steel_1_calc_05_110": {
        "classes": ["peak", "noisy"]
    },
    "steel_1_calc_05_125": {
        "classes": ["peak"]
    },
    "steel_1_calc_05_140": {
        "classes": ["minimal"]
    },
    "steel_1_calc_1_110": {
        "classes": ["peak"]
    },
    "steel_1_calc_2_110": {
        "classes": ["peak"]
    },
    "steel_1_calc_2_125": {
        "classes": ["peak"]
    },
    "steel_1_calc_2_140": {
        "classes": ["minimal"]
    },
    "steel_1_frac_125": {
        "classes": ["peak"]
    },
    "steel_1_frac_140": {
        "classes": ["peak", "minimal"]
    },
    "steel_1_frac_160": {
        "classes": ["no"]
    },
    "steel_1_frac_180": {
        "classes": ["no"]
    },
    "steel_1_frac_200": {
        "classes": ["no"]
    },
    "steel_2_calc_05_110": {
        "classes": ["noisy"]
    },
    "steel_2_calc_05_125": {
        "classes": ["peak", "noisy"]
    },
    "steel_2_calc_05_140": {
        "classes": ["minimal"]
    },
    "steel_2_calc_2_110": {
        "classes": ["peak", "noisy"]
    },
    "steel_2_calc_2_125": {
        "classes": ["peak"]
    },
    "steel_2_calc_2_140": {
        "classes": ["minimal"]
    },
    "steel_2_frac_110": {
        "classes": ["peak"]
    },
    "steel_2_frac_125": {
        "classes": ["peak"]
    },
    "steel_2_frac_140": {
        "classes": ["minimal"]
    },
    "steel_3_calc_05_110": {
        "classes": ["peak"]
    },
    "steel_3_calc_05_125": {
        "classes": ["minimal"]
    },
    "steel_3_calc_2_110": {
        "classes": ["peak"]
    },
    "steel_3_calc_2_125": {
        "classes": ["minimal"]
    },
    "steel_3_frac_110": {
        "classes": ["minimal"]
    },
    "steel_3_frac_125": {
        "classes": ["minimal"]
    },
    "steel_3_frac_140": {
        "classes": ["no"]
    }
}
